cypress\integration\Configuration\CustomApplications\5-Member.spec.js:
    Add one Categories to the custom application
        cy:request (K): POST https://test.catonet.works/ticker/handlelogin
                        Status: 200
                        Response body: {
                          "status": "OK",
                          "notifications": [
                            {
                              "status": "OK",
                              "message": ""
                            }
                          ],
                          "data": {
                            "isSystemLogin": false
                          }
                        }
        cy:command (K): visit	/#!/1656/customApplications
            cy:xhr (K): GET https://test.catonet.works/accountData?accountId=1656
            cy:xhr (K): GET https://test.catonet.works/getServerMessages?accountId=1656&creationDate=null
        cy:command (K): get	div[ng-click="$root.confirmCancel()"]
        cy:command (K): click	{force: true}
            cy:xhr (K): GET https://test.catonet.works/getAllCategories?accountId=1656&
        cy:command (K): get	.item
            cy:xhr (K): POST https://test.catonet.works/getAllCustomApps?accountId=1656
            cy:xhr (K): POST https://test.catonet.works/categories?accountId=1656
        cy:command (K): eq	0
        cy:command (K): click	
            cy:xhr (K): POST https://test.catonet.works/getCustomAppDefinitions?customapplicationId=449
            cy:xhr (K): POST https://test.catonet.works/getCustomAppDefinitions?customapplicationId=449
        cy:command (K): get	a[aria-controls="general"]
        cy:command (K): click	
        cy:command (K): get	div[ng-click="addNew($event)"] > span
        cy:command (K): assert	expected **<span>** to contain text **Add**
        cy:command (K): get	div[ng-click="addNew($event)"] > span
        cy:command (K): click	
        cy:command (K): get	input[id="chckAbortion"] 
        cy:command (K): click	{force: true}
        cy:command (K): get	#categoriesServicesDlg > .modal-dialog > .modal-content > .popup-buttons > .btn-save
        cy:command (K): click	
        cy:command (K): get	save-button > .btn
        cy:command (K): click	
            cy:xhr (K): POST https://test.catonet.works/edit?customapplicationId=449&save=true&newSaveMethod=true&
        cy:command (K): get	div[ng-click="addNew($event)"] > span
        cy:command (K): assert	expected **<span>** to contain text **Edit**
        cy:command (K): get	div[class="entry-list-container"]>div>div>span>span
        cy:command (K): assert	expected **<span>** to contain text **Abortion**
            cy:xhr (K): POST https://test.catonet.works/getCustomAppDefinitions?customapplicationId=449

    delete abortion  member using x icon
        cons:error (X): {},
                        undefined
            cy:xhr (K): POST https://test.catonet.works/trackerror
        cons:error (X): {},
                        undefined
            cy:xhr (K): POST https://test.catonet.works/trackerror
        cons:error (X): {},
                        undefined
            cy:xhr (K): POST https://test.catonet.works/trackerror
        cons:error (X): {},
                        undefined
            cy:xhr (K): POST https://test.catonet.works/trackerror
        cons:error (X): {},
                        undefined
            cy:xhr (K): POST https://test.catonet.works/trackerror
        cons:error (X): {},
                        undefined
            cy:xhr (X): POST https://test.catonet.works/trackerror
        cons:error (X): {},
                        undefined
            cy:xhr (K): POST https://test.catonet.works/trackerror
        cons:error (X): {},
                        undefined
            cy:xhr (K): POST https://test.catonet.works/trackerror
        cons:error (X): {},
                        undefined
            cy:xhr (K): POST https://test.catonet.works/trackerror
        cy:request (K): POST https://test.catonet.works/ticker/handlelogin
                        Status: 200
                        Response body: {
                          "status": "OK",
                          "notifications": [
                            {
                              "status": "OK",
                              "message": ""
                            }
                          ],
                          "data": {
                            "isSystemLogin": false
                          }
                        }
        cy:command (K): visit	/#!/1656/customApplications
            cy:xhr (K): GET https://test.catonet.works/accountData?accountId=1656
        cy:command (K): get	div[ng-click="$root.confirmCancel()"]
            cy:xhr (K): GET https://test.catonet.works/getAllCategories?accountId=1656&
        cy:command (K): click	{force: true}
            cy:xhr (K): GET https://test.catonet.works/getServerMessages?accountId=1656&creationDate=null
        cy:command (K): get	.item
            cy:xhr (K): POST https://test.catonet.works/getAllCustomApps?accountId=1656
            cy:xhr (K): POST https://test.catonet.works/categories?accountId=1656
            cy:xhr (K): POST https://test.catonet.works/getCustomAppDefinitions?customapplicationId=449
        cy:command (K): eq	0
        cy:command (K): click	
            cy:xhr (K): POST https://test.catonet.works/getCustomAppDefinitions?customapplicationId=449
        cy:command (K): get	a[aria-controls="general"]
        cy:command (K): click	
        cy:command (K): get	div[class="entry-list-container"]>div>div>span>span
        cy:command (K): contains	Abortion
        cy:command (K): parent	
        cy:command (K): parent	
        cy:command (K): within	
        cy:command (K): get	svg[class="icon icon-tag-x"]
        cy:command (K): click	
        cy:command (K): get	save-button > .btn
        cy:command (K): click	
            cy:xhr (K): POST https://test.catonet.works/edit?customapplicationId=449&save=true&newSaveMethod=true&
        cy:command (K): get	div[class="entry-list-container"]>div>div>span>span
        cy:command (K): assert	expected **undefined** to have a length of **0**

    Delete abortion categories using edit icon.
        cons:error (X): {},
                        undefined
            cy:xhr (K): POST https://test.catonet.works/trackerror
        cons:error (X): {},
                        undefined
            cy:xhr (K): POST https://test.catonet.works/trackerror
        cons:error (X): {},
                        undefined
            cy:xhr (X): POST https://test.catonet.works/trackerror
        cons:error (X): {},
                        undefined
            cy:xhr (X): POST https://test.catonet.works/trackerror
        cons:error (X): {},
                        undefined
            cy:xhr (X): POST https://test.catonet.works/trackerror
        cons:error (X): {},
                        undefined
            cy:xhr (X): POST https://test.catonet.works/trackerror
        cons:error (X): {},
                        undefined
            cy:xhr (X): POST https://test.catonet.works/trackerror
        cy:request (K): POST https://test.catonet.works/ticker/handlelogin
                        Status: 200
                        Response body: {
                          "status": "OK",
                          "notifications": [
                            {
                              "status": "OK",
                              "message": ""
                            }
                          ],
                          "data": {
                            "isSystemLogin": false
                          }
                        }
        cy:command (K): visit	/#!/1656/customApplications
            cy:xhr (K): GET https://test.catonet.works/accountData?accountId=1656
        cy:command (K): get	div[ng-click="$root.confirmCancel()"]
        cy:command (K): click	{force: true}
        cy:command (K): get	.item
            cy:xhr (K): GET https://test.catonet.works/getAllCategories?accountId=1656&
            cy:xhr (K): GET https://test.catonet.works/getServerMessages?accountId=1656&creationDate=null
            cy:xhr (K): POST https://test.catonet.works/getAllCustomApps?accountId=1656
        cy:command (K): eq	0
        cy:command (K): click	
        cy:command (K): get	a[aria-controls="general"]
        cy:command (K): click	
        cy:command (K): get	div[ng-click="addNew($event)"] > span
            cy:xhr (K): POST https://test.catonet.works/categories?accountId=1656
            cy:xhr (K): POST https://test.catonet.works/getCustomAppDefinitions?customapplicationId=449
        cy:command (K): click	
        cy:command (K): get	input[id="chckAbortion"] 
        cy:command (K): click	{force: true}
        cy:command (K): get	#categoriesServicesDlg > .modal-dialog > .modal-content > .popup-buttons > .btn-save
        cy:command (K): click	
        cy:command (K): get	save-button > .btn
        cy:command (K): click	
            cy:xhr (K): POST https://test.catonet.works/edit?customapplicationId=449&save=true&newSaveMethod=true&
        cy:command (K): get	div[ng-click="addNew($event)"] > span
        cy:command (K): click	
            cy:xhr (K): POST https://test.catonet.works/getCustomAppDefinitions?customapplicationId=449
        cy:command (K): get	input[id="chckAbortion"] 
        cy:command (K): click	{force: true}
        cy:command (K): get	#categoriesServicesDlg > .modal-dialog > .modal-content > .popup-buttons > .btn-save
        cy:command (K): click	
            cy:xhr (K): GET https://test.catonet.works/accountrevlitestatus?accountIdToQuery=1656&
        cy:command (K): get	save-button > .btn
        cy:command (K): click	
            cy:xhr (K): POST https://test.catonet.works/edit?customapplicationId=449&save=true&newSaveMethod=true&
        cy:command (K): get	div[class="entry-list-container"]>div>div>span>span
        cy:command (K): assert	expected **{ Object (length, prevObject, ...) }** not to have text **Abortion**
            cy:xhr (K): GET https://test.catonet.works/accountrevlitestatus?accountIdToQuery=1656&

    Delete all member by using clear
        cy:request (K): POST https://test.catonet.works/ticker/handlelogin
                        Status: 200
                        Response body: {
                          "status": "OK",
                          "notifications": [
                            {
                              "status": "OK",
                              "message": ""
                            }
                          ],
                          "data": {
                            "isSystemLogin": false
                          }
                        }
        cy:command (K): visit	/#!/1656/customApplications
            cy:xhr (K): GET https://test.catonet.works/accountData?accountId=1656
        cy:command (K): get	div[ng-click="$root.confirmCancel()"]
        cy:command (K): click	{force: true}
            cy:xhr (K): GET https://test.catonet.works/getServerMessages?accountId=1656&creationDate=null
        cy:command (K): get	.item
            cy:xhr (K): GET https://test.catonet.works/getAllCategories?accountId=1656&
            cy:xhr (K): POST https://test.catonet.works/getAllCustomApps?accountId=1656
            cy:xhr (K): POST https://test.catonet.works/categories?accountId=1656
        cy:command (K): eq	0
        cy:command (K): click	
            cy:xhr (K): POST https://test.catonet.works/getCustomAppDefinitions?customapplicationId=449
        cy:command (K): get	a[aria-controls="general"]
        cy:command (K): click	
        cy:command (K): get	div[ng-click="addNew($event)"] > span
        cy:command (K): click	
        cy:command (K): get	div[class="checkbox no-disable"] > label >span> span[class="check"]
        cy:command (K): get	#categoriesServicesDlg > .modal-dialog > .modal-content > .popup-buttons > .btn-save
        cy:command (K): click	
        cy:command (K): get	save-button > .btn
        cy:command (K): click	
            cy:xhr (K): POST https://test.catonet.works/edit?customapplicationId=449&save=true&newSaveMethod=true&
        cy:command (K): get	div[ng-click="addNew($event)"] > span
        cy:command (K): click	
            cy:xhr (K): POST https://test.catonet.works/getCustomAppDefinitions?customapplicationId=449
        cy:command (K): contains	Clear
        cy:command (K): click	{force: true}
            cy:xhr (K): GET https://test.catonet.works/accountrevlitestatus?accountIdToQuery=1656&
        cy:command (K): get	#categoriesServicesDlg > .modal-dialog > .modal-content > .popup-buttons > .btn-save
        cy:command (K): click	
        cy:command (K): get	save-button > .btn
        cy:command (K): click	
            cy:xhr (K): POST https://test.catonet.works/edit?customapplicationId=449&save=true&newSaveMethod=true&
        cy:command (K): get	div[class="entry-list-container"]>div>div>span>span
        cy:command (K): assert	expected **undefined** to have a length of **0**
            cy:xhr (K): GET https://test.catonet.works/accountrevlitestatus?accountIdToQuery=1656&

    Cancel the operation of add categories using cancel
        cons:error (X): {},
                        undefined
            cy:xhr (K): POST https://test.catonet.works/trackerror
        cons:error (X): {},
                        undefined
            cy:xhr (K): POST https://test.catonet.works/trackerror
        cons:error (X): {},
                        undefined
            cy:xhr (K): POST https://test.catonet.works/trackerror
        cons:error (X): {},
                        undefined
            cy:xhr (K): POST https://test.catonet.works/trackerror
        cons:error (X): {},
                        undefined
            cy:xhr (K): POST https://test.catonet.works/trackerror
        cons:error (X): {},
                        undefined
            cy:xhr (X): POST https://test.catonet.works/trackerror
        cons:error (X): {},
                        undefined
            cy:xhr (X): POST https://test.catonet.works/trackerror
        cons:error (X): {},
                        undefined
            cy:xhr (X): POST https://test.catonet.works/trackerror
        cons:error (X): {},
                        undefined
            cy:xhr (X): POST https://test.catonet.works/trackerror
        cons:error (X): {},
                        undefined
            cy:xhr (X): POST https://test.catonet.works/trackerror
        cons:error (X): {},
                        undefined
            cy:xhr (X): POST https://test.catonet.works/trackerror
        cons:error (X): {},
                        undefined
            cy:xhr (X): POST https://test.catonet.works/trackerror
        cons:error (X): {},
                        undefined
            cy:xhr (X): POST https://test.catonet.works/trackerror
        cons:error (X): {},
                        undefined
            cy:xhr (X): POST https://test.catonet.works/trackerror
        cons:error (X): {},
                        undefined
            cy:xhr (X): POST https://test.catonet.works/trackerror
        cons:error (X): {},
                        undefined
            cy:xhr (X): POST https://test.catonet.works/trackerror
        cons:error (X): {},
                        undefined
            cy:xhr (X): POST https://test.catonet.works/trackerror
        cons:error (X): {},
                        undefined
            cy:xhr (X): POST https://test.catonet.works/trackerror
        cy:request (K): POST https://test.catonet.works/ticker/handlelogin
                        Status: 200
                        Response body: {
                          "status": "OK",
                          "notifications": [
                            {
                              "status": "OK",
                              "message": ""
                            }
                          ],
                          "data": {
                            "isSystemLogin": false
                          }
                        }
        cy:command (K): visit	/#!/1656/customApplications
            cy:xhr (K): GET https://test.catonet.works/accountData?accountId=1656
        cy:command (K): get	div[ng-click="$root.confirmCancel()"]
            cy:xhr (K): GET https://test.catonet.works/getServerMessages?accountId=1656&creationDate=null
        cy:command (K): click	{force: true}
            cy:xhr (K): GET https://test.catonet.works/getAllCategories?accountId=1656&
        cy:command (K): get	.item
            cy:xhr (K): POST https://test.catonet.works/getAllCustomApps?accountId=1656
            cy:xhr (K): POST https://test.catonet.works/categories?accountId=1656
        cy:command (K): eq	0
        cy:command (K): click	
            cy:xhr (K): POST https://test.catonet.works/getCustomAppDefinitions?customapplicationId=449
        cy:command (K): get	a[aria-controls="general"]
        cy:command (K): click	
        cy:command (K): get	div[ng-click="addNew($event)"] > span
        cy:command (K): click	
        cy:command (K): get	input[id="chckAbortion"]
        cy:command (K): click	{force: true}
        cy:command (K): get	button[ng-click="$root.closePopup('categoriesServicesDlg')"]
        cy:command (K): click	
        cy:command (K): get	save-button > .btn
        cy:command (K): assert	expected **<button.btn.cato-btn.btn-sm.done-button.btn-save>** to be **disabled**

    Cancel the operation of add categories using x icon
        cy:request (K): POST https://test.catonet.works/ticker/handlelogin
                        Status: 200
                        Response body: {
                          "status": "OK",
                          "notifications": [
                            {
                              "status": "OK",
                              "message": ""
                            }
                          ],
                          "data": {
                            "isSystemLogin": false
                          }
                        }
        cy:command (K): visit	/#!/1656/customApplications
            cy:xhr (K): GET https://test.catonet.works/accountData?accountId=1656
        cy:command (K): get	div[ng-click="$root.confirmCancel()"]
        cy:command (K): click	{force: true}
            cy:xhr (K): GET https://test.catonet.works/getAllCategories?accountId=1656&
        cy:command (K): get	.item
            cy:xhr (K): GET https://test.catonet.works/getServerMessages?accountId=1656&creationDate=null
            cy:xhr (K): POST https://test.catonet.works/getAllCustomApps?accountId=1656
            cy:xhr (K): POST https://test.catonet.works/categories?accountId=1656
            cy:xhr (K): POST https://test.catonet.works/getCustomAppDefinitions?customapplicationId=449
        cy:command (K): eq	0
        cy:command (K): click	
        cy:command (K): get	a[aria-controls="general"]
        cy:command (K): click	
        cy:command (K): get	div[ng-click="addNew($event)"] > span
        cy:command (K): click	
        cy:command (K): get	input[id="chckAbortion"]
        cy:command (K): click	{force: true}
        cy:command (K): get	div[ng-click="$root.closePopup($ctrl.rulesType + 'networkingRulesServicesDlg')"]
        cy:command (X): click	



